blockchain\Main.class
model\HashResult.class
blockchain\ManagerBehavior$HashResultCommand.class
utils\BlockChainUtils.class
blockchain\ManagerBehavior$Command.class
model\BlockChain.class
blockchain\BlockChainMiner.class
blockchain\WorkerBehavior$Command.class
blockchain\ManagerBehavior$MineBlockCommand.class
blockchain\MiningSystemBehavior.class
model\Transaction.class
blockchain\ManagerBehavior.class
model\Block.class
blockchain\WorkerBehavior.class
model\BlockValidationException.class
utils\BlocksData.class
